Kateřina Horáková ;  3/6
Petr Černý ;  70%
Jan Veselá ;  29/82 + 9/60
Marie Pokorná ;  2/28
Tomáš Veselá ;  72%
Petr Kučera ;  2/6
Věra Novotná ;  21/52 + 1/20
Petr Novotný ;  4/50 + 19/78
Michal Novotný ;  11/36
Kateřina Novák ;  1/1
František Procházková ;  15/40 + 29/78
Lucie Dvořáková ;  24% + 25% + 32%
Michal Procházková ;  4/12
Josef Horák ;  30%
Hana Dvořák ;  2% + 27% + 5%
Zdeněk Černý ;  8/15
Pavel Černý ;  25%
Martin Svoboda ;  15/34
Jana Kučerová ;  23/40
