Milan Dvořák; 15/25
Alena Kučerová; 13/26 + 2/88
František Procházková; 43%
Lucie Pokorná; 23% + 21% + 15%
Jaroslav Svobodová; 1%
Kateřina Procházková; 76%
Pavel Němec; 2%
Lenka Dvořák; 14%
Kateřina Veselý; 29% + 29% + 27%
Milan Pospíšilová; 8%
Kateřina Černý; 46%
Alena Horák; 19% + 17% + 24%
