Miroslav Černý; 17/24
Jan Němec; 18% + 30%
Jiří Pospíšilová; 32/47
Eva Dvořáková; 17/92 + 20/56
František Marková; 3/4
Věra Procházková; 22/32
Tomáš Novotný; 56%
Václav Černá; 27% + 14%
Petr Marková; 32%
Lenka Marková; 21/68 + 28/74
Miroslav Pokorná; 16% + 6% + 11%
Lenka Krejčí; 73%
Miroslav Marek; 28/43
Anna Dvořáková; 0% + 8% + 10%
Anna Svoboda; 3% + 30% + 9%
Václav Pospíšilová; 5% + 2%
Kateřina Horáková; 98%
František Procházka; 9/54 + 31/62
Lucie Dvořák; 15/34
