Alena Novotná; 11/42
Marie Krejčí; 2/18 + 25/52
Lucie Krejčí; 33% + 31% + 32%
Lenka Pokorná; 29% + 3% + 30%
Josef Němec; 4/4
Pavel Nováková; 12%
Jana Svoboda; 51% + 22%
Jiří Pospíšilová; 6/20
Hana Dvořáková; 11/12
Hana Pokorná; 17% + 10% + 19%
Marie Němcová; 29% + 48%
