Marie Svoboda ;  5/18
Lucie Kučerová ;  21% + 3% + 10%
Miroslav Kučerová ;  2/15
Zdeněk Procházková ;  0%
Věra Procházková ;  27% + 14% + 1%
Jakub Kučera ;  27% + 13%
Michal Svobodová ;  14/24
Alena Černá ;  14/27
Lucie Nováková ;  4/24 + 1/8
Josef Krejčí ;  54%
Petr Svoboda ;  3/20 + 34/68
Petr Procházka ;  53%
Kateřina Pokorná ;  10/58 + 23/60
Tomáš Pokorná ;  5% + 70%
Jaroslav Dvořáková ;  21% + 27% + 8%
