Josef Kučera; 39/98 + 23/90
Lucie Marek; 23/42
Miroslav Nováková; 6%
František Procházková; 43%
Anna Němec; 11/58 + 25/84
František Černá; 71%
Věra Marek; 14% + 28% + 15%
Václav Marek; 8% + 11% + 3%
Pavel Procházka; 92%
Jana Černý; 6/28
František Veselý; 21% + 19% + 11%
Pavel Horák; 18%
Jan Kučera; 85%
Věra Svobodová; 18% + 17% + 11%
