Zdeněk Krejčí ;  59%
Marie Horáková ;  20% + 30% + 15%
Lenka Němcová ;  2/24
Kateřina Němcová ;  2% + 21%
Věra Svoboda ;  4/15
Věra Kučera ;  41%
Jakub Novotný ;  86%
Jana Procházka ;  76% + 21%
Tomáš Kučera ;  7/33
Jakub Nováková ;  35% + 2%
Alena Marek ;  6/21
Martin Dvořáková ;  16/18
Jakub Kučerová ;  31%
Martin Kučera ;  79%
Alena Černý ;  50%
Lenka Horáková ;  92%
Jan Nováková ;  7/11
