Hana Novák; 10/48 + 6/34
Miroslav Novotná; 18%
Milan Černá; 2/58 + 11/48
Zdeněk Procházková; 91%
Anna Němcová; 60%
Marie Procházka; 56% + 20%
Jana Marková; 10/29
Zdeněk Svoboda; 15% + 5%
Hana Novotná; 39%
Alena Marková; 19/68 + 40/84
Marie Marková; 29/30
Martin Novotná; 63%
Josef Černá; 1/45
Kateřina Černý; 36/40
Lenka Pokorná; 27/92 + 3/10
Zdeněk Procházka; 61%
Eva Novák; 17/41
Lucie Procházková; 9/18 + 2/62
Eva Horák; 3% + 22% + 32%
