Jakub Horáková; 21/37
Kateřina Novotná; 22/35
Kateřina Novotná; 3% + 12% + 15%
Kateřina Němec; 10/22 + 15/36
František Pospíšilová; 5/7
Marie Procházka; 10/30 + 30/84
Tomáš Krejčí; 86% + 1%
Alena Nováková; 79%
Martin Novák; 64%
Eva Marková; 4/28
Jan Veselý; 47%
