Pavel Němcová; 46% + 33%
Jana Novotný; 4% + 5%
Alena Novotný; 32% + 33% + 10%
Jakub Krejčí; 49%
Anna Pospíšilová; 0%
Jakub Nováková; 98%
Anna Veselá; 12% + 11% + 20%
Lucie Svobodová; 10/17
Lenka Krejčí; 8% + 18% + 9%
Alena Černý; 12/13
