Anna Nováková; 5/72 + 16/44
Petr Pokorná; 10/13
Lenka Procházka; 65%
Michal Horák; 32% + 49%
Jana Horáková; 16/47
Marie Černá; 50%
Václav Marek; 7/41
Jana Kučera; 18% + 9% + 11%
Miroslav Veselý; 14/88 + 10/26
Jiří Dvořák; 36% + 9%
Lenka Veselý; 21%
Martin Horáková; 67%
Kateřina Dvořák; 43%
Hana Nováková; 96%
Anna Novák; 1/3
