Jakub Procházka ;  1/8 + 2/56
Eva Marková ;  12/23
Kateřina Černý ;  20/40 + 28/100
Eva Horáková ;  81%
Jakub Svobodová ;  59%
Marie Pokorná ;  4% + 16% + 31%
Miroslav Horák ;  23/44
Lucie Pokorná ;  29% + 12% + 17%
Marie Svobodová ;  28% + 11%
Kateřina Marek ;  9/22
Alena Černá ;  4/62 + 27/74
