Hana Veselý; 58%
Jakub Černá; 35%
Jaroslav Veselý; 0% + 86%
Jiří Nováková; 76%
Jakub Kučera; 19/21
František Novotný; 4% + 30% + 7%
Marie Marek; 79%
Milan Novák; 90%
Tomáš Procházková; 22% + 12% + 16%
Kateřina Veselý; 10%
Lenka Kučerová; 3/22 + 28/66
Anna Krejčí; 52%
Anna Horáková; 94%
Věra Černý; 21/29
Jaroslav Horáková; 16% + 76%
Věra Svoboda; 15%
František Veselý; 27/27
Martin Svobodová; 30% + 21% + 17%
