Michal Kučera; 5/50 + 9/20
Miroslav Svobodová; 14% + 22%
Jiří Novák; 2/16 + 12/54
Jana Krejčí; 16% + 13%
Jan Němec; 79%
Kateřina Černý; 20/24
Jana Marek; 51%
Petr Svoboda; 4/6
Josef Novotná; 6% + 7% + 13%
Jiří Novotná; 1/36 + 22/82
Miroslav Kučerová; 29/36
Martin Nováková; 1/8
Václav Kučerová; 9% + 23% + 0%
Jana Nováková; 4/19
Petr Pokorná; 36/41
Václav Veselý; 21% + 28% + 17%
Alena Svoboda; 70% + 25%
