Hana Novotný ;  4% + 15% + 31%
Martin Novotná ;  13/24
Jaroslav Dvořáková ;  26% + 31%
Václav Novák ;  10% + 26% + 19%
Milan Němcová ;  10/30
Jakub Horáková ;  7/20
Josef Krejčí ;  3% + 15% + 13%
František Pokorná ;  20/49
Eva Černá ;  26/40
Tomáš Němec ;  2/4
Miroslav Novotná ;  36/82 + 1/74
Lucie Černá ;  1/12
