Marie Marková; 86% + 4%
Eva Novák; 1/1
Lucie Němcová; 11% + 0% + 21%
Milan Novotný; 92%
Jana Horáková; 12% + 28% + 4%
Věra Veselá; 31/68 + 9/26
Martin Kučerová; 8% + 36%
Jiří Svobodová; 23% + 26% + 5%
Eva Veselá; 1/3
Tomáš Dvořák; 8/10
Miroslav Marková; 47%
Michal Pokorná; 1/16
Jiří Němcová; 12% + 19% + 30%
Jaroslav Veselá; 72%
Alena Kučerová; 33/44
Marie Novák; 12/13
Jana Marková; 23/60 + 1/26
Zdeněk Novotná; 40%
