Lucie Svoboda ;  6% + 33%
František Veselá ;  9% + 21% + 11%
Zdeněk Svoboda ;  14/19
Michal Svobodová ;  15% + 12% + 10%
Marie Nováková ;  20/26
Tomáš Horáková ;  14% + 5% + 10%
Jaroslav Němcová ;  4/14
Milan Marková ;  1/11
Alena Veselý ;  17% + 13% + 9%
Jana Procházková ;  25% + 14% + 22%
