Václav Němec ;  5/5
Jana Němcová ;  2/6 + 3/18
Michal Kučera ;  18%
Jana Krejčí ;  2% + 4%
Michal Černý ;  22/46 + 7/38
Zdeněk Černý ;  15/16
Tomáš Veselý ;  5%
Lucie Černá ;  94%
Miroslav Němec ;  4% + 14%
Martin Marek ;  27/35
Josef Němec ;  20%
Kateřina Horák ;  26% + 9% + 6%
Anna Novák ;  47%
Lenka Dvořák ;  6%
Hana Krejčí ;  14/28 + 8/50
Václav Nováková ;  33/74 + 9/70
Jana Procházka ;  21% + 23%
Alena Nováková ;  36%
Hana Veselá ;  3/13
