Jan Nováková; 5% + 18% + 30%
Jan Veselý; 16% + 16% + 24%
Jana Veselý; 65% + 31%
Věra Marková; 18/46
Marie Dvořák; 8/58 + 1/12
Alena Kučerová; 10% + 22% + 12%
Jakub Kučera; 99%
Kateřina Černý; 52%
Věra Němcová; 21% + 18% + 7%
Marie Veselá; 19/38
Václav Černá; 68%
Václav Veselý; 54%
Jaroslav Marek; 3/10
Jiří Procházka; 7/14 + 2/4
