Pavel Veselý; 1/1
Alena Novotná; 9/17
Jiří Marek; 39%
Eva Veselá; 10%
Lenka Marek; 1/2
Lenka Procházková; 13% + 19% + 17%
Lucie Němec; 1/10
Alena Svoboda; 24/48 + 4/18
Martin Černá; 26%
Hana Němec; 6/6
Milan Marková; 13/32 + 12/28
Jiří Kučera; 1/48 + 3/12
Zdeněk Kučerová; 17/35
