Zdeněk Dvořák; 77%
Michal Němcová; 18% + 49%
Anna Němcová; 0% + 5% + 25%
Eva Dvořák; 35/44
Pavel Dvořáková; 10/33
František Pokorná; 50%
Marie Nováková; 5% + 0% + 11%
Tomáš Dvořáková; 64%
Josef Němec; 94%
Marie Marek; 1/1
František Kučera; 46/48
Alena Černá; 3/12
Lenka Nováková; 4/5
Jan Černý; 1/70 + 4/100
Lucie Procházková; 22% + 39%
Miroslav Procházková; 24%
Alena Černá; 35% + 28%
