Jana Dvořák; 16% + 17% + 29%
Kateřina Pokorná; 41% + 1%
Milan Novák; 0% + 1%
Jiří Veselá; 50%
Lenka Pokorná; 30% + 0% + 22%
Jan Nováková; 1/47
Jaroslav Veselá; 89%
Kateřina Pospíšilová; 17% + 0% + 31%
Josef Němcová; 10/25
Eva Marek; 1% + 7% + 30%
Josef Novák; 11% + 31% + 13%
Kateřina Novotný; 36/47
