Zdeněk Kučerová ;  17% + 14% + 28%
Michal Veselá ;  8/20
Zdeněk Horáková ;  5/29
Martin Němcová ;  4/12 + 6/48
Michal Svobodová ;  5/10
Michal Pokorná ;  3% + 21%
Václav Procházka ;  15% + 0% + 5%
Václav Horák ;  13% + 15% + 26%
Zdeněk Procházka ;  14/21
Anna Svobodová ;  32% + 26% + 31%
Jakub Pokorná ;  49%
Marie Novotná ;  68%
Miroslav Kučerová ;  17/96 + 44/90
