Anna Kučera ;  36% + 22%
Petr Dvořáková ;  48% + 27%
Věra Krejčí ;  77%
Kateřina Kučera ;  18/41
František Marková ;  30% + 17% + 7%
Jana Svobodová ;  23% + 5%
Lenka Veselá ;  14% + 28%
Jiří Němcová ;  0% + 65%
Kateřina Marková ;  23/90 + 1/4
Jana Veselý ;  2%
Jana Němcová ;  30/39
Tomáš Veselá ;  18% + 29%
Jaroslav Kučera ;  10/10
Anna Veselý ;  98%
Jana Němec ;  38% + 52%
Anna Procházka ;  32/49
Petr Horáková ;  2% + 32% + 7%
Jiří Krejčí ;  24% + 18%
Zdeněk Marek ;  18/40
