Jakub Němcová ;  24/40
Petr Pospíšilová ;  19/20
Jaroslav Veselý ;  98%
Jakub Dvořáková ;  60%
Petr Němec ;  20% + 2%
Michal Horáková ;  81%
Miroslav Horák ;  11/80 + 11/36
Miroslav Nováková ;  64%
František Procházková ;  12/31
František Horák ;  2/20 + 4/10
Kateřina Dvořáková ;  4/16 + 22/98
Jan Němec ;  22/31
Josef Nováková ;  27/34
Jiří Kučerová ;  21% + 20% + 33%
Kateřina Kučera ;  5/76 + 25/72
Martin Kučerová ;  19% + 16%
Kateřina Svobodová ;  5/10
Miroslav Dvořák ;  11/36 + 20/74
