Eva Pokorná; 83%
Marie Krejčí; 34/36
Kateřina Veselý; 2/23
František Dvořáková; 38/44
Milan Kučerová; 25/64 + 9/26
Zdeněk Kučera; 11/36 + 5/38
Martin Marek; 21/62 + 4/14
Tomáš Horáková; 0% + 4%
Hana Marková; 4/68 + 2/18
Jana Černá; 51%
Marie Procházka; 0%
Pavel Svobodová; 3/4
Petr Nováková; 6%
