František Svoboda; 1/24
Tomáš Svobodová; 4/27
Věra Dvořák; 43%
Zdeněk Dvořáková; 56%
Alena Svobodová; 15% + 3%
Jakub Krejčí; 6/18 + 16/42
Jiří Nováková; 23% + 23% + 22%
Jakub Černá; 9/20 + 18/68
Hana Veselá; 56%
Petr Dvořáková; 21% + 22% + 16%
Hana Marek; 12/19
Václav Horák; 1/2 + 18/92
Václav Marková; 2/74 + 4/42
Anna Němec; 4/5
Kateřina Kučera; 29/35
Jan Novotný; 22/49
Zdeněk Horák; 97%
Milan Horák; 17/29
Jiří Horák; 19/68 + 1/30
