Milan Novák ;  2/60 + 4/18
Jakub Dvořáková ;  87%
Josef Pospíšilová ;  93%
Eva Pokorná ;  40/42
Jakub Němcová ;  3% + 11%
Michal Horáková ;  17/36
Václav Svoboda ;  31/66 + 1/20
Alena Novák ;  29% + 27%
Lenka Horáková ;  27% + 29% + 11%
Věra Němec ;  9% + 17%
Zdeněk Marek ;  27% + 19% + 12%
Tomáš Novák ;  36% + 6%
František Černá ;  6/18 + 16/66
Lenka Horáková ;  15% + 28% + 25%
Hana Procházka ;  60% + 12%
