Jan Černá; 16/19
Alena Němec; 24/54 + 9/90
Jakub Marek; 32/86 + 30/68
František Kučerová; 1%
Milan Kučerová; 30%
Věra Dvořáková; 9% + 33% + 15%
Tomáš Krejčí; 29/35
Anna Němec; 18% + 28% + 25%
František Marková; 21/21
Jana Svoboda; 34/98 + 27/66
Václav Novotný; 28/34
Jan Svobodová; 11/42
Lenka Horáková; 2/3
Václav Marková; 2%
Tomáš Nováková; 19/84 + 37/98
Miroslav Novotná; 15%
Anna Pospíšilová; 63%
