Jiří Dvořáková ;  30% + 12% + 15%
Alena Horák ;  7% + 7%
Michal Marek ;  21/46 + 7/94
Alena Nováková ;  6% + 18%
Jana Marková ;  44%
Jakub Horáková ;  30% + 15% + 1%
Petr Veselá ;  33%
Anna Veselá ;  40%
Eva Kučerová ;  12% + 31% + 19%
Václav Kučerová ;  29%
