Miroslav Němcová ;  27% + 66%
Václav Kučerová ;  17% + 24% + 28%
Milan Svoboda ;  37/41
Alena Procházková ;  26% + 61%
Alena Veselá ;  18%
Václav Veselá ;  72%
Věra Kučerová ;  23% + 23% + 15%
Václav Němcová ;  41%
Eva Horáková ;  2/10
Miroslav Marková ;  23%
Josef Dvořáková ;  6/16
Tomáš Novák ;  1/10 + 1/10
Jaroslav Dvořák ;  28% + 19%
Zdeněk Svoboda ;  73%
Jiří Dvořáková ;  63%
Martin Marek ;  34% + 22%
Miroslav Dvořák ;  33% + 7% + 24%
Miroslav Horák ;  24/49
