Lucie Černá ;  43% + 34%
Zdeněk Procházková ;  6/98 + 8/56
Pavel Krejčí ;  95%
Eva Procházková ;  13% + 20%
Martin Svobodová ;  3/18 + 1/40
František Svoboda ;  9%
Jiří Horáková ;  28/30
Zdeněk Němcová ;  27/28
Petr Němcová ;  5/12 + 21/66
Milan Marek ;  3%
Josef Marek ;  9/22
Jakub Němcová ;  38% + 6%
Lenka Kučerová ;  58%
Marie Černá ;  9/14
Jakub Procházková ;  5/8
