Marie Marek ;  25% + 15% + 9%
Anna Novák ;  12% + 11% + 26%
Marie Němec ;  49%
Jana Veselý ;  25%
Anna Procházka ;  28/30
Jan Horáková ;  30% + 13% + 13%
Jakub Dvořáková ;  2% + 1%
Jan Kučerová ;  5/7
Miroslav Veselý ;  88%
Věra Černý ;  4/37
Jiří Němec ;  55%
Josef Horáková ;  25/46
Eva Marková ;  50%
Václav Novotná ;  97%
Jakub Novotný ;  60%
Martin Němec ;  19/54 + 6/92
