Jakub Svoboda ;  41%
Jiří Pokorná ;  2/6 + 6/22
Anna Krejčí ;  26% + 20% + 10%
Josef Veselá ;  62%
Petr Dvořáková ;  47%
Josef Novotný ;  8% + 44%
Anna Procházková ;  64%
Jana Procházka ;  15/34
Miroslav Novotná ;  4% + 1% + 33%
Miroslav Dvořáková ;  7/48
Josef Němec ;  21%
Tomáš Procházková ;  9% + 0% + 20%
Miroslav Svobodová ;  16/20
Hana Černý ;  5% + 25%
František Kučerová ;  15/64 + 6/80
Milan Němcová ;  15/48
Josef Krejčí ;  22/98 + 19/54
