Hana Dvořák; 29/50
Hana Marek; 43%
Josef Veselá; 11%
Michal Němec; 3% + 1%
Jiří Marek; 97%
Zdeněk Novotný; 73% + 15%
Tomáš Veselá; 16/46 + 12/32
Jakub Horáková; 6/9
Petr Černý; 55%
Marie Pospíšilová; 12% + 4%
František Černý; 79% + 11%
Josef Pospíšilová; 28% + 11%
Michal Kučerová; 78%
Michal Svobodová; 11/18
Hana Pokorná; 2% + 6%
Věra Pokorná; 47/98 + 10/30
František Marek; 31% + 23% + 26%
Martin Dvořák; 76%
Anna Dvořák; 32/82 + 48/98
