Michal Krejčí; 9/9
Jiří Horáková; 67%
Eva Veselá; 4/46 + 14/38
Anna Marková; 31/40
Milan Marek; 5% + 25% + 9%
Jana Pokorná; 47% + 39%
Věra Krejčí; 19/92 + 8/22
Jiří Marek; 34% + 45%
Jan Černý; 59% + 38%
Jiří Horáková; 6/24 + 21/100
Michal Svoboda; 13/34
Pavel Horáková; 56%
Anna Pospíšilová; 0%
Jiří Procházka; 11/25
