Jan Marková ;  48%
Zdeněk Černý ;  10/23
Tomáš Nováková ;  20/40
Alena Kučera ;  64%
Josef Pospíšilová ;  4/5
Zdeněk Černá ;  4%
Věra Černý ;  9% + 19%
Věra Kučera ;  40/47
Zdeněk Dvořák ;  58%
Jan Dvořák ;  3/3
Jaroslav Procházka ;  10/14
Věra Procházka ;  6% + 30% + 1%
Zdeněk Veselý ;  1/20
Michal Černý ;  96%
Hana Horáková ;  8/14
