Miroslav Horáková; 19% + 3%
Jiří Pospíšilová; 9%
Zdeněk Horáková; 31/82 + 30/64
Jaroslav Novotná; 57%
Marie Horák; 56%
Jiří Procházková; 22/56 + 43/90
Kateřina Marek; 14/16
Věra Kučera; 1/58 + 30/70
Zdeněk Procházka; 23/32
Tomáš Horáková; 16% + 11% + 16%
Jiří Černý; 1/20
Milan Horáková; 12% + 19% + 6%
Jakub Černý; 13/47
Martin Němec; 10/100 + 30/82
Eva Procházka; 31/43
Josef Kučerová; 26/76 + 3/40
