Josef Dvořák ;  5/6
Zdeněk Marek ;  8/48
Věra Svoboda ;  22%
Alena Dvořák ;  63%
Věra Novotný ;  18% + 6%
Kateřina Nováková ;  6/23
Jiří Krejčí ;  81%
Martin Veselý ;  3% + 27% + 19%
Lucie Horáková ;  11/34 + 16/44
Pavel Marková ;  22% + 9%
Josef Procházková ;  23% + 7% + 17%
Jiří Horáková ;  57% + 21%
Zdeněk Dvořák ;  30% + 22% + 11%
