Michal Dvořák ;  11/58 + 31/80
Jan Marek ;  14% + 2% + 8%
Martin Procházka ;  32% + 19% + 5%
Lucie Novotný ;  10%
Anna Procházka ;  36%
Zdeněk Novotná ;  10/34
Zdeněk Dvořáková ;  78%
Marie Procházka ;  32%
Eva Krejčí ;  3/6 + 29/62
Jaroslav Procházka ;  7/19
