Anna Pokorná; 8/22 + 28/94
Kateřina Svobodová; 92%
Zdeněk Horák; 15% + 0% + 13%
Kateřina Veselý; 33%
Josef Veselý; 12%
Tomáš Horáková; 25% + 31%
Jana Procházková; 60%
Lucie Kučerová; 1/4 + 31/70
Anna Novák; 74%
Lenka Dvořáková; 3/3
Alena Horáková; 5/14
Václav Kučerová; 71%
Jiří Svobodová; 8/76 + 8/86
Hana Dvořáková; 18% + 12%
Pavel Svobodová; 93%
Josef Novák; 3% + 7%
Kateřina Procházka; 5/74 + 2/4
Josef Veselá; 48%
Jan Kučera; 2/10 + 3/52
