Anna Marek ;  4/8
Eva Pokorná ;  53%
Václav Pospíšilová ;  24/88 + 40/88
Hana Černá ;  75%
Jiří Procházka ;  12% + 36%
Petr Procházková ;  67%
Tomáš Nováková ;  49%
Jaroslav Marek ;  19/33
Jiří Svobodová ;  66%
Petr Dvořáková ;  11%
