Jana Procházková; 15% + 30% + 24%
Miroslav Nováková; 81%
Jana Němec; 2/26 + 5/78
Jakub Procházková; 6/22 + 5/44
Marie Černá; 7/36 + 1/40
Jan Veselý; 10/10
Pavel Pokorná; 21% + 5% + 25%
Věra Pospíšilová; 71% + 26%
Marie Novotný; 20/41
Petr Krejčí; 25% + 25%
Jiří Pokorná; 67%
Zdeněk Marková; 54% + 9%
Hana Veselá; 27%
Jakub Krejčí; 43% + 4%
