Jana Dvořáková ;  53%
Jaroslav Krejčí ;  10/41
Anna Horák ;  40% + 21%
Zdeněk Svoboda ;  19% + 33%
Václav Veselá ;  10/17
Tomáš Veselá ;  78%
Petr Kučera ;  40%
Lucie Procházková ;  21/96 + 16/42
Kateřina Dvořák ;  23/35
Jaroslav Marková ;  14% + 2%
Jakub Svobodová ;  4/12 + 1/8
Martin Černý ;  37%
Eva Procházka ;  9/17
Jakub Procházková ;  1/84 + 13/48
Milan Novotný ;  5% + 10% + 5%
